{
  "waves": [
    {
      "id" : "1",
      "intval" : 10.0,
      "enemies" : [
        {"type": "tank-a", "intval": 2.0, "path": "WavePath-01"},
        {"type": "tank-a", "intval": 2.0, "path": "WavePath-01"}
      ],
      "count" : 0,
      "state" : 0
    },
    {
      "id" : "2",
      "intval" : 10.0,
      "enemies" : [
        {"type": "tank-a", "intval": 2.0, "path": "WavePath-02"},
        {"type": "tank-a", "intval": 2.0, "path": "WavePath-02"},
        {"type": "tank-a", "intval": 2.0, "path": "WavePath-02"}
      ],
      "count" : 0,
      "state" : 0
    },
   {
      "id" : "3",
      "intval" : 10.0,
      "enemies" : [
        {"type": "tank-a", "intval": 1.0, "path": "WavePath-03"},
        {"type": "tank-a", "intval": 1.0, "path": "WavePath-04"},
        {"type": "tank-a", "intval": 1.0, "path": "WavePath-03"},
        {"type": "tank-a", "intval": 1.0, "path": "WavePath-04"},
        {"type": "tank-a", "intval": 1.0, "path": "WavePath-03"}
      ],
      "count" : 0,
      "state" : 0
    }
  ]
}

