[gd_scene load_steps=4 format=2]

[ext_resource path="res://assets/island741_asset/level 10 map.png" type="Texture" id=1]
[ext_resource path="res://assets/tilesets/tileset.tres" type="TileSet" id=2]
[ext_resource path="res://tower-base-a.tscn" type="PackedScene" id=4]

[node name="Level-010" type="TextureRect"]
margin_right = 640.0
margin_bottom = 480.0
size_flags_horizontal = 2
size_flags_vertical = 2
expand = true
__meta__ = {
"__editor_plugin_screen__": "2D",
"_edit_use_anchors_": false
}

[node name="Navigation2D" type="Navigation2D" parent="."]
position = Vector2( 0.0847244, 0.0330963 )

[node name="TileMap" type="TileMap" parent="Navigation2D"]
position = Vector2( -1.10178, -0.692566 )
tile_set = ExtResource( 2 )
format = 1
tile_data = PoolIntArray( 393224, 0, 0, 393225, 0, 0, 393226, 0, 0, 393227, 0, 0, 393228, 0, 0, 458760, 0, 0, 458761, 0, 0, 458762, 0, 0, 458763, 0, 0, 458764, 0, 0, 524296, 0, 0, 524297, 0, 0, 524298, 0, 0, 524299, 0, 0, 524300, 0, 0, 589832, 0, 0, 589833, 0, 0, 589834, 0, 0, 589835, 0, 0, 589836, 0, 0, 655368, 0, 0, 655369, 0, 0, 655370, 0, 0, 655371, 0, 0, 655372, 0, 0, 720904, 0, 0, 720905, 0, 0, 720906, 0, 0, 720907, 0, 0, 720908, 0, 0, 786440, 0, 0, 786441, 0, 0, 786442, 0, 0, 786443, 0, 0, 786444, 0, 0, 851968, 0, 0, 851969, 0, 0, 851970, 0, 0, 851971, 0, 0, 851972, 0, 0, 851973, 0, 0, 851974, 0, 0, 851975, 0, 0, 851976, 0, 0, 851977, 0, 0, 851978, 0, 0, 851979, 0, 0, 851980, 0, 0, 851981, 0, 0, 851982, 0, 0, 851983, 0, 0, 851984, 0, 0, 851985, 0, 0, 851986, 0, 0, 851987, 0, 0, 851988, 0, 0, 851989, 0, 0, 851990, 0, 0, 851991, 0, 0, 851992, 0, 0, 851993, 0, 0, 851994, 0, 0, 851995, 0, 0, 851996, 0, 0, 851997, 0, 0, 851998, 0, 0, 851999, 0, 0, 852000, 0, 0, 852001, 0, 0, 852002, 0, 0, 852003, 0, 0, 852004, 0, 0, 852005, 0, 0, 852006, 0, 0, 917504, 0, 0, 917505, 0, 0, 917506, 0, 0, 917507, 0, 0, 917508, 0, 0, 917509, 0, 0, 917510, 0, 0, 917511, 0, 0, 917512, 0, 0, 917513, 0, 0, 917514, 0, 0, 917515, 0, 0, 917516, 0, 0, 917517, 0, 0, 917518, 0, 0, 917519, 0, 0, 917520, 0, 0, 917521, 0, 0, 917522, 0, 0, 917523, 0, 0, 917524, 0, 0, 917525, 0, 0, 917526, 0, 0, 917527, 0, 0, 917528, 0, 0, 917529, 0, 0, 917530, 0, 0, 917531, 0, 0, 917532, 0, 0, 917533, 0, 0, 917534, 0, 0, 917535, 0, 0, 917536, 0, 0, 917537, 0, 0, 917538, 0, 0, 917539, 0, 0, 917540, 0, 0, 917541, 0, 0, 917542, 0, 0, 983040, 0, 0, 983041, 0, 0, 983042, 0, 0, 983043, 0, 0, 983044, 0, 0, 983045, 0, 0, 983046, 0, 0, 983047, 0, 0, 983048, 0, 0, 983049, 0, 0, 983050, 0, 0, 983051, 0, 0, 983052, 0, 0, 983053, 0, 0, 983054, 0, 0, 983055, 0, 0, 983056, 0, 0, 983057, 0, 0, 983058, 0, 0, 983059, 0, 0, 983060, 0, 0, 983061, 0, 0, 983062, 0, 0, 983063, 0, 0, 983064, 0, 0, 983065, 0, 0, 983066, 0, 0, 983067, 0, 0, 983068, 0, 0, 983069, 0, 0, 983070, 0, 0, 983071, 0, 0, 983072, 0, 0, 983073, 0, 0, 983074, 0, 0, 983075, 0, 0, 983076, 0, 0, 983077, 0, 0, 983078, 0, 0, 1048576, 0, 0, 1048577, 0, 0, 1048578, 0, 0, 1048579, 0, 0, 1048580, 0, 0, 1048581, 0, 0, 1048582, 0, 0, 1048583, 0, 0, 1048584, 0, 0, 1048585, 0, 0, 1048586, 0, 0, 1048587, 0, 0, 1048588, 0, 0, 1048589, 0, 0, 1048590, 0, 0, 1048591, 0, 0, 1048592, 0, 0, 1048593, 0, 0, 1048594, 0, 0, 1048595, 0, 0, 1048596, 0, 0, 1048597, 0, 0, 1048598, 0, 0, 1048599, 0, 0, 1048600, 0, 0, 1048601, 0, 0, 1048602, 0, 0, 1048603, 0, 0, 1048604, 0, 0, 1048605, 0, 0, 1048606, 0, 0, 1048607, 0, 0, 1048608, 0, 0, 1048609, 0, 0, 1048610, 0, 0, 1048611, 0, 0, 1048612, 0, 0, 1048613, 0, 0, 1048614, 0, 0 )

[node name="level 10 map" type="Sprite" parent="."]
texture = ExtResource( 1 )
centered = false

[node name="SpawnPoint1" type="Position2D" parent="."]
position = Vector2( 328.609, 81.3389 )

[node name="SpawnPoint2" type="Position2D" parent="."]
position = Vector2( 328.609, 81.3389 )

[node name="TargetPoint1" type="Position2D" parent="."]
position = Vector2( 1225.45, 543.952 )

[node name="TargetPoint2" type="Position2D" parent="."]
position = Vector2( 1229.16, 638.545 )

[node name="TowerBase-1" parent="." instance=ExtResource( 4 )]
margin_left = 146.845
margin_top = 226.145
margin_right = 210.845
margin_bottom = 290.145

[node name="TowerBase-3" parent="." instance=ExtResource( 4 )]
margin_left = 126.858
margin_top = 453.416
margin_right = 190.858
margin_bottom = 517.416

[node name="TowerBase- 4" parent="." instance=ExtResource( 4 )]
margin_left = 494.361
margin_top = 233.16
margin_right = 558.361
margin_bottom = 297.16

[node name="Label" type="Label" parent="."]
margin_left = 216.489
margin_top = 210.252
margin_right = 256.489
margin_bottom = 224.252
text = "lv10"
