[gd_scene load_steps=6 format=2]

[ext_resource path="res://placeable-turret.gd" type="Script" id=1]
[ext_resource path="res://assets/images/placeable_turret.png" type="Texture" id=2]
[ext_resource path="res://assets/sounds/gunshot.ogg" type="AudioStream" id=3]

[sub_resource type="RectangleShape2D" id=1]
extents = Vector2( 56.5646, 44.5268 )

[sub_resource type="CircleShape2D" id=2]
radius = 118.311

[node name="turret" type="Area2D"]
scale = Vector2( 0.7, 0.7 )
script = ExtResource( 1 )

[node name="Sprite" type="Sprite" parent="."]
position = Vector2( 2.49747, 9.45473 )
scale = Vector2( 0.3, 0.3 )
texture = ExtResource( 2 )

[node name="CollisionShape2D" type="CollisionShape2D" parent="."]
position = Vector2( 5.22751, 1.57273 )
scale = Vector2( 0.7, 0.7 )
shape = SubResource( 1 )

[node name="Position2D" type="Position2D" parent="."]
position = Vector2( 53.1694, -0.512123 )
scale = Vector2( 0.7, 0.7 )

[node name="Area2D" type="Area2D" parent="."]

[node name="CollisionShape2D" type="CollisionShape2D" parent="Area2D"]
shape = SubResource( 2 )

[node name="AudioGunshot" type="AudioStreamPlayer2D" parent="."]
stream = ExtResource( 3 )
[connection signal="body_entered" from="Area2D" to="." method="_on_Area2D_body_entered"]
