[gd_scene load_steps=2 format=2]

[ext_resource path="res://TouchCamera2D.gd" type="Script" id=1]

[node name="TouchCamera2D" type="Camera2D"]
current = true
limit_left = 0
limit_top = 0
limit_right = 25000
limit_bottom = 10800
limit_smoothed = true
script = ExtResource( 1 )
