[gd_resource type="TileSet" load_steps=7 format=2]

[ext_resource path="res://assets/images/floor.png" type="Texture" id=1]
[ext_resource path="res://assets/images/obstacle-grass.png" type="Texture" id=2]
[ext_resource path="res://assets/images/floor2.png" type="Texture" id=3]

[sub_resource type="NavigationPolygon" id=1]
vertices = PoolVector2Array( 32, -32, 32, 32, -32, 32, -32, -32 )
polygons = [ PoolIntArray( 0, 1, 2, 3 ) ]
outlines = [ PoolVector2Array( -32, -32, -32, 32, 32, 32, 32, -32 ) ]

[sub_resource type="RectangleShape2D" id=2]
extents = Vector2( 32, 32 )

[sub_resource type="ConvexPolygonShape2D" id=3]
points = PoolVector2Array( 0, 0, 63, 0, 63, 64, 0, 64 )

[resource]
0/name = "floor"
0/texture = ExtResource( 1 )
0/tex_offset = Vector2( 0, 0 )
0/modulate = Color( 1, 1, 1, 1 )
0/region = Rect2( 0, 0, 0, 0 )
0/tile_mode = 0
0/occluder_offset = Vector2( 32, 32 )
0/navigation_offset = Vector2( 32, 32 )
0/navigation = SubResource( 1 )
0/shape_offset = Vector2( 0, 0 )
0/shape_transform = Transform2D( 1, 0, 0, 1, 0, 0 )
0/shape_one_way = false
0/shape_one_way_margin = 0.0
0/shapes = [  ]
0/z_index = 0
1/name = "obstacle"
1/texture = ExtResource( 2 )
1/tex_offset = Vector2( 0, 0 )
1/modulate = Color( 1, 1, 1, 1 )
1/region = Rect2( 0, 0, 0, 0 )
1/tile_mode = 0
1/occluder_offset = Vector2( 32, 32 )
1/navigation_offset = Vector2( 32, 32 )
1/shape_offset = Vector2( 32, 32 )
1/shape_transform = Transform2D( 1, 0, 0, 1, 32, 32 )
1/shape = SubResource( 2 )
1/shape_one_way = false
1/shape_one_way_margin = 1.0
1/shapes = [ {
"autotile_coord": Vector2( 0, 0 ),
"one_way": false,
"one_way_margin": 1.0,
"shape": SubResource( 2 ),
"shape_transform": Transform2D( 1, 0, 0, 1, 32, 32 )
} ]
1/z_index = 0
2/name = "floor2.png 2"
2/texture = ExtResource( 3 )
2/tex_offset = Vector2( 0, 0 )
2/modulate = Color( 1, 1, 1, 1 )
2/region = Rect2( 0, 0, 63, 64 )
2/tile_mode = 0
2/occluder_offset = Vector2( 0, 0 )
2/navigation_offset = Vector2( 0, 0 )
2/shape_offset = Vector2( 0, 0 )
2/shape_transform = Transform2D( 1, 0, 0, 1, 0, 0 )
2/shape = SubResource( 3 )
2/shape_one_way = false
2/shape_one_way_margin = 1.0
2/shapes = [ {
"autotile_coord": Vector2( 0, 0 ),
"one_way": false,
"one_way_margin": 1.0,
"shape": SubResource( 3 ),
"shape_transform": Transform2D( 1, 0, 0, 1, 0, 0 )
} ]
2/z_index = 0
